…
### rGBM

Filter CD14+ cells:

    [1] 14.63351

### iGBM

Filter CD14+ cells:

    [1] 14.26552

### Violin plot of ASAH1 expression in CD14+ cells

    # A tibble: 33,069 × 9
       gene  cell         asah1_expression     x     y ident cluster sample gbm_type
       <chr> <chr>                   <dbl> <dbl> <dbl> <dbl> <chr>   <chr>  <chr>   
     1 ASAH1 AAAGCAAAGAA…             8.26  1.09  6.61     4 Monocy… R1     rGBM    
     2 ASAH1 AAAGTAGGTTA…            10.4   1.22  5.67     4 Monocy… R1     rGBM    
     3 ASAH1 AACACGTTCCC…             7.80  4.83  5.38     4 Monocy… R1     rGBM    
     4 ASAH1 ACACCCTCAGA…             9.30  1.75  6.11     4 Monocy… R1     rGBM    
     5 ASAH1 ACATCAGAGCC…             8.33  1.11  5.78     4 Monocy… R1     rGBM    
     6 ASAH1 ACATCAGAGTG…             9.30  8.54  7.05     4 Monocy… R1     rGBM    
     7 ASAH1 ACATGGTCAGA…             8.80  2.00  6.26     4 Monocy… R1     rGBM    
     8 ASAH1 ACATGGTGTCA…             8.14  2.45  6.40     4 Monocy… R1     rGBM    
     9 ASAH1 ACCAGTATCGT…             8.95  1.50  5.36     4 Monocy… R1     rGBM    
    10 ASAH1 ACGAGGAAGAA…             7.85  3.14  8.29     4 Monocy… R1     rGBM    
    # ℹ 33,059 more rows
…
